{
  "schedules": [
    {
      "from": "2020-05-27 08:54:35",
      "to": "2020-05-27 14:54:35"
    },
    {
      "from": "2020-05-30 08:54:35",
      "to": "2020-05-30 14:54:35"
    },
    {
      "from": "2020-06-02 08:54:35",
      "to": "2020-06-02 14:54:35"
    },
    {
      "from": "2020-06-13 08:54:35",
      "to": "2020-06-13 14:54:35"
    },
    {
      "from": "2020-06-26 08:54:35",
      "to": "2020-06-26 14:54:35"
    }
 
  ]
 
}
